module github.com/cyberark/unter

go 1.22

// replace yaml => ./patches/yaml
// See also workspaces

require (
	github.com/stretchr/testify v1.8.4
	gopkg.in/yaml.v3 v3.0.1
)

require (
	github.com/davecgh/go-spew v1.1.1 // indirect
	github.com/pmezard/go-difflib v1.0.0 // indirect
)
